…
### 5. Books with no reviews.  
**Code :**
```
books %>% select(Book_title, Reviews) %>% filter(Reviews == 0)
```

**Result :**
```
# A tibble: 22 × 2
   Book_title                                                            Reviews
   <chr>                                                                   <dbl>
 1 Responsive Web Design Overview For Beginners                                0
 2 ZX Spectrum Games Code Club: Twenty fun games to code and learn             0
 3 Game Programming Golden Rules                                               0
 4 Beginners Guide On PHP Programming: Quick And Easy Guide To Learn PH…       0
 5 Python Programming Books Set: Python Programming for Beginners & Com…       0
 6 Your First App: Node.js                                                     0
 7 Python Programming For Beginners: Quick And Easy Guide For Python Pr…       0
 8 Building an FPS Game with Unity                                             0
 9 Advanced Game Programming: A Gamedev.Net Collection                         0
10 Basic Proof Theory                                                          0
# … with 12 more rows
```
…
